data/slope/Our_Data/exported_data_big_ball_acc_2.csv

#Digilent WaveForms Oscilloscope Acquisition
#Device Name: Discovery2
#Serial Number: SN:210321A803BC
#Date Time: 2020-11-27 09:20:36.974
#Sample rate: 5000Hz
#Samples: 14240
#Trigger: Source: Channel 1 Type: Edge Condition: Rising Level: 2 V Hyst.: Auto HoldOff: 0 s
#Channel 1: Range: 500 mV/div Offset: -2 V Attenuation: 1 X
#Power Supplies: ON
#Positive Supply: ON
#Voltage: 5 V
#Negative Supply: ON
#Voltage: -1 V

Time (s),Channel 1 (V)
-0.5,1.904895994102247
-0.4998,0.9502036745799436
-0.4996,0.9502036745799436
-0.4994000000000001,0.9502036745799436
-0.4992000000000001,0.9502036745799436
-0.4990000000000001,0.9502036745799436
-0.4988000000000001,0.9502036745799436
-0.4986000000000002,0.9502036745799436
-0.4984000000000002,0.9502036745799436
-0.4982000000000002,0.9502036745799436
-0.4980000000000002,0.9502036745799436
-0.4977999999999998,0.9502036745799436
-0.4975999999999998,0.9502036745799436
-0.4973999999999998,0.9502036745799436
-0.4971999999999999,0.9502036745799436
-0.4969999999999999,0.9502036745799436
-0.4967999999999999,0.9502036745799436
-0.4965999999999999,0.9502036745799436
-0.4964,0.9502036745799436
-0.4962,0.9502036745799436
-0.496,0.9502036745799436
-0.4958,0.9502036745799436
-0.4956,0.9502036745799436
-0.4954000000000001,0.9502036745799436
-0.4952000000000001,0.9502036745799436
-0.4950000000000001,0.9502036745799436
-0.4948000000000001,0.9502036745799436
-0.4946000000000002,0.9502036745799436
-0.4944000000000002,0.9502036745799436
-0.4942000000000002,0.9502036745799436
-0.4940000000000002,0.9502036745799436
-0.4937999999999998,0.9502036745799436
-0.4935999999999998,0.9502036745799436
-0.4933999999999998,0.9502036745799436
-0.4931999999999999,0.9502036745799436
-0.4929999999999999,0.9502036745799436
-0.4927999999999999,0.9502036745799436
-0.4925999999999999,0.9502036745799436
-0.4923999999999999,0.9502036745799436
-0.4922,0.9502036745799436
-0.492,0.9502036745799436
-0.4918,0.9502036745799436
-0.4916,0.9502036745799436
-0.4914000000000001,0.9502036745799436
-0.4912000000000001,0.9502036745799436
-0.4910000000000001,0.9502036745799436
-0.4908000000000001,0.9502036745799436
-0.4906000000000001,0.9502036745799436
-0.4904000000000002,0.9502036745799436
-0.4902000000000002,0.9502036745799436
-0.4900000000000002,0.9502036745799436
-0.4897999999999998,0.9502036745799436
-0.4895999999999998,0.9502036745799436
-0.4893999999999998,0.9502036745799436
-0.4891999999999999,0.9502036745799436
-0.4889999999999999,0.9502036745799436
-0.4887999999999999,0.9502036745799436
-0.4885999999999999,0.9502036745799436
-0.4883999999999999,0.9502036745799436
-0.4882,0.9502036745799436
-0.488,0.9502036745799436
-0.4878,0.9502036745799436
-0.4876,0.9502036745799436
-0.4874000000000001,0.9502036745799436
-0.4872000000000001,0.9502036745799436
-0.4870000000000001,0.9502036745799436
-0.4868000000000001,0.9502036745799436
-0.4866000000000001,0.9502036745799436
-0.4864000000000002,0.9502036745799436
-0.4862000000000002,0.9502036745799436
-0.4860000000000002,0.9502036745799436
-0.4857999999999998,0.9502036745799436
-0.4855999999999998,0.9502036745799436
-0.4853999999999998,0.9502036745799436
-0.4851999999999999,0.9502036745799436
-0.4849999999999999,0.9502036745799436
-0.4847999999999999,0.9502036745799436
-0.4845999999999999,0.9502036745799436
-0.4843999999999999,0.9505424582277513
-0.4842,0.9502036745799436
-0.484,0.9502036745799436
-0.4838,0.9502036745799436
-0.4836,0.9502036745799436
-0.4834000000000001,0.9502036745799436
-0.4832000000000001,0.9502036745799436
-0.4830000000000001,0.9502036745799436
-0.4828000000000001,0.9502036745799436
-0.4826000000000001,0.9502036745799436
-0.4824000000000002,0.9502036745799436
-0.4822000000000002,0.9502036745799436
-0.4820000000000002,0.9502036745799436
-0.4817999999999998,0.9502036745799436
-0.4815999999999998,0.9502036745799436
-0.4813999999999998,0.9502036745799436
-0.4811999999999999,0.9502036745799436
-0.4809999999999999,0.9502036745799436
-0.4807999999999999,0.9502036745799436
-0.4805999999999999,0.9502036745799436
-0.4803999999999999,0.9502036745799436
-0.4802,0.9502036745799436
-0.48,0.9502036745799436
-0.4798,0.9502036745799436
-0.4796,0.9502036745799436
-0.4794,0.9502036745799436
-0.4792000000000001,0.9502036745799436
-0.4790000000000001,0.9502036745799436
-0.4788000000000001,0.9502036745799436
-0.4786000000000001,0.9502036745799436
-0.4784000000000002,0.9502036745799436
-0.4782000000000002,0.9502036745799436
-0.4780000000000002,0.9502036745799436
-0.4777999999999998,0.9502036745799436
-0.4775999999999998,0.9502036745799436
-0.4773999999999998,0.9502036745799436
-0.4771999999999998,0.9505424582277513
-0.4769999999999999,0.9505424582277513
-0.4767999999999999,0.9502036745799436
-0.4765999999999999,0.9502036745799436
-0.4763999999999999,0.9502036745799436
-0.4762,0.9502036745799436
-0.476,0.9505424582277513
-0.4758,0.9505424582277513
-0.4756,0.9502036745799436
-0.4754,0.9502036745799436
-0.4752000000000001,0.9502036745799436
-0.4750000000000001,0.9505424582277513
-0.4748000000000001,0.9502036745799436
-0.4746000000000001,0.9502036745799436
-0.4744000000000002,0.9502036745799436
-0.4742000000000002,0.9505424582277513
-0.4740000000000002,0.9505424582277513
-0.4738000000000002,0.9502036745799443
-0.4735999999999998,0.9502036745799443
-0.4733999999999998,0.9505424582277513
-0.4731999999999998,0.9505424582277513
-0.4729999999999999,0.9502036745799436
-0.4727999999999999,0.9502036745799436
-0.4725999999999999,0.9502036745799436
-0.4723999999999999,0.9505424582277513
-0.4722,0.9502036745799436
-0.472,0.9502036745799436
-0.4718,0.9502036745799436
-0.4716,0.9502036745799436
-0.4714,0.9502036745799436
-0.4712000000000001,0.9502036745799436
-0.4710000000000001,0.9502036745799436
-0.4708000000000001,0.9502036745799436
-0.4706000000000001,0.9502036745799436
-0.4704000000000002,0.9502036745799436
-0.4702000000000002,0.9505424582277513
-0.4700000000000002,0.9502036745799443
-0.4698000000000002,0.9502036745799436
-0.4695999999999998,0.9502036745799436
-0.4693999999999998,0.9502036745799436
-0.4691999999999998,0.9502036745799436
-0.4689999999999999,0.9502036745799436
-0.4687999999999999,0.9502036745799436
-0.4685999999999999,0.9502036745799436
-0.4683999999999999,0.9502036745799436
-0.4681999999999999,0.9502036745799436
-0.468,0.9502036745799436
-0.4678,0.9502036745799436
-0.4676,0.9502036745799436
-0.4674,0.9502036745799436
-0.4672000000000001,0.9505424582277513
-0.4670000000000001,0.9502036745799436
-0.4668000000000001,0.9505424582277513
-0.4666000000000001,0.9502036745799436
-0.4664000000000001,0.9502036745799436
-0.4662000000000002,0.9505424582277513
-0.4660000000000002,0.9505424582277513
-0.4658000000000002,0.9502036745799443
-0.4655999999999998,0.9502036745799436
-0.4653999999999998,0.9502036745799436
-0.4651999999999998,0.9502036745799436
-0.4649999999999999,0.9502036745799436
-0.4647999999999999,0.9502036745799436
-0.4645999999999999,0.9502036745799436
-0.4643999999999999,0.9502036745799436
-0.4641999999999999,0.9502036745799436
-0.464,0.9502036745799436
-0.4638,0.9502036745799436
-0.4636,0.9502036745799436
-0.4634,0.9502036745799436
-0.4632000000000001,0.9502036745799436
-0.4630000000000001,0.9502036745799436
-0.4628000000000001,0.9502036745799436
-0.4626000000000001,0.9502036745799436
-0.4624000000000001,0.9502036745799436
-0.4622000000000002,0.9502036745799436
-0.4620000000000002,0.9502036745799436
-0.4618000000000002,0.9502036745799436
-0.4615999999999998,0.9502036745799436
-0.4613999999999998,0.9502036745799436
-0.4611999999999998,0.9502036745799436
-0.4609999999999999,0.9505424582277513
-0.4607999999999999,0.9502036745799436
-0.4605999999999999,0.9502036745799436
-0.4603999999999999,0.9502036745799436
-0.4601999999999999,0.9502036745799436
-0.46,0.9502036745799436
-0.4598,0.9502036745799436
-0.4596,0.9502036745799436
-0.4594,0.9502036745799436
-0.4592000000000001,0.9502036745799436
-0.4590000000000001,0.9502036745799436
-0.4588000000000001,0.9502036745799436
-0.4586000000000001,0.9502036745799436
-0.4584000000000001,0.9502036745799436
-0.4582000000000002,0.9502036745799436
-0.4580000000000002,0.9502036745799436
-0.4578000000000002,0.9502036745799436
-0.4575999999999998,0.9502036745799436
-0.4573999999999998,0.9502036745799436
-0.4571999999999998,0.9502036745799436
-0.4569999999999999,0.9502036745799436
-0.4567999999999999,0.9502036745799436
-0.4565999999999999,0.9502036745799436
-0.4563999999999999,0.9502036745799436
-0.4561999999999999,0.9502036745799436
-0.456,0.9502036745799436
-0.4558,0.9502036745799436
-0.4556,0.9502036745799436
-0.4554,0.9502036745799436
-0.4552,0.9502036745799436
-0.4550000000000001,0.9502036745799436
-0.4548000000000001,0.9502036745799436
-0.4546000000000001,0.9502036745799436
-0.4544000000000001,0.9502036745799436
-0.4542000000000002,0.9502036745799436
-0.4540000000000002,0.9502036745799436
-0.4538000000000002,0.9502036745799436
-0.4535999999999998,0.9502036745799443
-0.4533999999999998,0.950542458227752
-0.4531999999999998,0.9508812418755592
-0.4529999999999998,0.9508812418755592
-0.4527999999999999,0.9508812418755592
-0.4525999999999999,0.9508812418755592
-0.4523999999999999,0.9508812418755592
-0.4521999999999999,0.9505424582277513
-0.452,0.9505424582277513
-0.4518,0.9505424582277513
-0.4516,0.9505424582277513
-0.4514,0.9502036745799436
-0.4512,0.9502036745799436
-0.4510000000000001,0.9505424582277513
-0.4508000000000001,0.9505424582277513
-0.4506000000000001,0.9505424582277513
-0.4504000000000001,0.9502036745799436
-0.4502000000000002,0.9502036745799436
-0.4500000000000002,0.9502036745799436
-0.4498000000000002,0.9502036745799436
-0.4496000000000002,0.9505424582277506
-0.4493999999999998,0.950881241875558
-0.4491999999999998,0.9502036745799436
-0.4489999999999998,0.9502036745799436
-0.4487999999999999,0.9502036745799436
-0.4485999999999999,0.9502036745799436
-0.4483999999999999,0.9505424582277513
-0.4481999999999999,0.9502036745799436
-0.448,0.9502036745799436
-0.4478,0.9502036745799436
-0.4476,0.9502036745799436
-0.4474,0.9502036745799436
-0.4472,0.9505424582277513
-0.4470000000000001,0.9508812418755592
-0.4468000000000001,0.9505424582277513
-0.4466000000000001,0.9502036745799436
-0.4464000000000001,0.9502036745799436
-0.4462000000000002,0.9505424582277513
-0.4460000000000002,0.9505424582277513
-0.4458000000000002,0.9502036745799443
-0.4456000000000002,0.9505424582277506
-0.4453999999999998,0.9502036745799443
-0.4451999999999998,0.9505424582277513
-0.4449999999999998,0.9502036745799436
-0.4447999999999999,0.9502036745799436
-0.4445999999999999,0.9502036745799436
-0.4443999999999999,0.9502036745799436
-0.4441999999999999,0.9502036745799436
-0.444,0.9502036745799436
-0.4438,0.9502036745799436
-0.4436,0.9505424582277513
-0.4434,0.9502036745799436
-0.4432,0.9502036745799436
-0.4430000000000001,0.9502036745799436
-0.4428000000000001,0.9505424582277513
-0.4426000000000001,0.9508812418755592
-0.4424000000000001,0.9508812418755592
-0.4422000000000001,0.9505424582277513
-0.4420000000000002,0.9508812418755592
-0.4418000000000002,0.950542458227752
-0.4416000000000002,0.9502036745799443
-0.4413999999999998,0.9502036745799436
-0.4411999999999998,0.9502036745799436
-0.4409999999999998,0.9502036745799436
-0.4407999999999999,0.9502036745799436
-0.4405999999999999,0.9502036745799436
-0.4403999999999999,0.9502036745799436
-0.4401999999999999,0.9502036745799436
-0.4399999999999999,0.9502036745799436
-0.4398,0.9502036745799436
-0.4396,0.9502036745799436
-0.4394,0.9505424582277513
-0.4392,0.9508812418755592
-0.4390000000000001,0.9502036745799436
-0.4388000000000001,0.9502036745799436
-0.4386000000000001,0.9502036745799436
-0.4384000000000001,0.9502036745799436
-0.4382000000000001,0.9502036745799436
-0.4380000000000002,0.9502036745799436
-0.4378000000000002,0.9505424582277506
-0.4376000000000002,0.9502036745799443
-0.4373999999999998,0.9502036745799436
-0.4371999999999998,0.9502036745799436
-0.4369999999999998,0.9502036745799436
-0.4367999999999999,0.9502036745799436
-0.4365999999999999,0.9505424582277513
-0.4363999999999999,0.9505424582277513
-0.4361999999999999,0.9502036745799436
-0.4359999999999999,0.9502036745799436
-0.4358,0.9502036745799436
-0.4356,0.9502036745799436
-0.4354,0.9502036745799436
-0.4352,0.9502036745799436
-0.4350000000000001,0.9502036745799436
-0.4348000000000001,0.9505424582277513
-0.4346000000000001,0.9502036745799436
-0.4344000000000001,0.9502036745799436
-0.4342000000000001,0.9502036745799436
-0.4340000000000002,0.9502036745799436
-0.4338000000000002,0.9502036745799436
-0.4336000000000002,0.9505424582277506
-0.4333999999999998,0.9502036745799436
-0.4331999999999998,0.9502036745799436
-0.4329999999999998,0.9502036745799436
-0.4327999999999999,0.9505424582277513
-0.4325999999999999,0.9505424582277513
-0.4323999999999999,0.9502036745799436
-0.4321999999999999,0.9502036745799436
-0.4319999999999999,0.9502036745799436
-0.4318,0.9502036745799436
-0.4316,0.9502036745799436
-0.4314,0.9502036745799436
-0.4312,0.9502036745799436
-0.431,0.9502036745799436
-0.4308000000000001,0.9502036745799436
-0.4306000000000001,0.9502036745799436
-0.4304000000000001,0.9502036745799436
-0.4302000000000001,0.9502036745799436
-0.4300000000000002,0.9502036745799436
-0.4298000000000002,0.9502036745799436
-0.4296000000000002,0.9505424582277506
-0.4293999999999998,0.9508812418755586
-0.4291999999999998,0.9505424582277513
-0.4289999999999998,0.9505424582277513
-0.4287999999999998,0.9508812418755592
-0.4285999999999999,0.9505424582277513
-0.4283999999999999,0.9505424582277513
-0.4281999999999999,0.9502036745799436
-0.4279999999999999,0.9505424582277513
-0.4278,0.9502036745799436
-0.4276,0.9502036745799436
-0.4274,0.9505424582277513
-0.4272,0.9502036745799436
-0.427,0.9502036745799436
-0.4268000000000001,0.9502036745799436
-0.4266000000000001,0.9505424582277513
-0.4264000000000001,0.9502036745799436
-0.4262000000000001,0.9502036745799436
-0.4260000000000002,0.9505424582277513
-0.4258000000000002,0.9505424582277513
-0.4256000000000002,0.9505424582277513
-0.4253999999999998,0.9502036745799436
-0.4251999999999998,0.9502036745799443
-0.4249999999999998,0.9505424582277513
-0.4247999999999998,0.9505424582277513
-0.4245999999999999,0.9502036745799436
-0.4243999999999999,0.9505424582277513
-0.4241999999999999,0.9502036745799436
-0.4239999999999999,0.9502036745799436
-0.4238,0.9505424582277513
-0.4236,0.9502036745799436
-0.4234,0.9505424582277513
-0.4232,0.9505424582277513
-0.423,0.9505424582277513
-0.4228000000000001,0.9502036745799436
-0.4226000000000001,0.9502036745799436
-0.4224000000000001,0.9502036745799436
-0.4222000000000001,0.9502036745799436
-0.4220000000000002,0.9502036745799436
-0.4218000000000002,0.9502036745799436
-0.4216000000000002,0.9502036745799436
-0.4214000000000002,0.9502036745799436
-0.4211999999999998,0.9502036745799436
-0.4209999999999998,0.9502036745799436
-0.4207999999999998,0.9502036745799436
-0.4205999999999999,0.9502036745799436
-0.4203999999999999,0.9505424582277513
-0.4201999999999999,0.9502036745799436
-0.4199999999999999,0.9502036745799436
-0.4198,0.9502036745799436
-0.4196,0.9505424582277513
-0.4194,0.9508812418755592
-0.4192,0.9508812418755592
-0.419,0.9508812418755592
-0.4188000000000001,0.9505424582277513
-0.4186000000000001,0.9505424582277513
-0.4184000000000001,0.9502036745799436
-0.4182000000000001,0.9502036745799436
-0.4180000000000001,0.9502036745799436
-0.4178000000000002,0.9502036745799436
-0.4176000000000002,0.9502036745799436
-0.4174000000000002,0.9502036745799436
-0.4171999999999998,0.9502036745799436
-0.4169999999999998,0.9502036745799436
-0.4167999999999998,0.9502036745799436
-0.4165999999999999,0.9502036745799436
-0.4163999999999999,0.9502036745799436
-0.4161999999999999,0.9502036745799436
-0.4159999999999999,0.9502036745799436
-0.4157999999999999,0.9502036745799436
-0.4156,0.9502036745799436
-0.4154,0.9505424582277513
-0.4152,0.9502036745799436
-0.415,0.9502036745799436
-0.4148000000000001,0.9502036745799436
-0.4146000000000001,0.9502036745799436
-0.4144000000000001,0.9502036745799436
-0.4142000000000001,0.9502036745799436
-0.4140000000000001,0.9502036745799436
-0.4138000000000002,0.9502036745799436
-0.4136000000000002,0.9502036745799436
-0.4134000000000002,0.9502036745799436
-0.4131999999999998,0.9502036745799436
-0.4129999999999998,0.9502036745799436
-0.4127999999999998,0.9502036745799436
-0.4125999999999999,0.9502036745799436
-0.4123999999999999,0.9502036745799436
-0.4121999999999999,0.9502036745799436
-0.4119999999999999,0.9502036745799436
-0.4117999999999999,0.9502036745799436
-0.4116,0.9502036745799436
-0.4114,0.9502036745799436
-0.4112,0.9502036745799436
-0.411,0.9502036745799436
-0.4108000000000001,0.9505424582277513
-0.4106000000000001,0.9505424582277513
-0.4104000000000001,0.9502036745799436
-0.4102000000000001,0.9502036745799436
-0.4100000000000001,0.9502036745799436
-0.4098000000000002,0.9502036745799436
-0.4096000000000002,0.9502036745799436
-0.4094000000000002,0.9502036745799436
-0.4091999999999998,0.9502036745799436
-0.4089999999999998,0.9502036745799436
-0.4087999999999998,0.9502036745799436
-0.4085999999999999,0.9502036745799436
-0.4083999999999999,0.9502036745799436
-0.4081999999999999,0.9502036745799436
-0.4079999999999999,0.9502036745799436
-0.4077999999999999,0.9502036745799436
-0.4076,0.9502036745799436
-0.4074,0.9502036745799436
-0.4072,0.9502036745799436
-0.407,0.9502036745799436
-0.4068000000000001,0.9502036745799436
-0.4066000000000001,0.9502036745799436
-0.4064000000000001,0.9505424582277513
-0.4062000000000001,0.9505424582277513
-0.4060000000000001,0.9505424582277513
-0.4058000000000002,0.9508812418755592
-0.4056000000000002,0.950542458227752
-0.4054000000000002,0.9505424582277513
-0.4051999999999998,0.9502036745799443
-0.4049999999999998,0.9505424582277506
-0.4047999999999998,0.9502036745799436
-0.4045999999999998,0.9502036745799436
-0.4043999999999999,0.9502036745799436
-0.4041999999999999,0.9502036745799436
-0.4039999999999999,0.9502036745799436
-0.4037999999999999,0.9502036745799436
-0.4036,0.9502036745799436
-0.4034,0.9502036745799436
-0.4032,0.9502036745799436
-0.403,0.9502036745799436
-0.4028,0.9502036745799436
-0.4026000000000001,0.9502036745799436
-0.4024000000000001,0.9502036745799436
-0.4022000000000001,0.9502036745799436
-0.4020000000000001,0.9502036745799436
-0.4018000000000002,0.9502036745799436
-0.4016000000000002,0.9502036745799436
-0.4014000000000002,0.9502036745799436
-0.4011999999999998,0.9502036745799436
-0.4009999999999998,0.9502036745799436
-0.4007999999999998,0.9502036745799436
-0.4005999999999998,0.9502036745799436
-0.4003999999999999,0.9502036745799436
-0.4001999999999999,0.9502036745799436
-0.3999999999999999,0.9502036745799436
-0.3997999999999999,0.9502036745799436
-0.3996,0.9502036745799436
-0.3994,0.9502036745799436
-0.3992,0.9502036745799436
-0.399,0.9502036745799436
-0.3988,0.9502036745799436
-0.3986000000000001,0.9502036745799436
-0.3984000000000001,0.9502036745799436
-0.3982000000000001,0.9502036745799436
-0.3980000000000001,0.9502036745799436
-0.3978000000000002,0.9502036745799436
-0.3976000000000002,0.9505424582277513
-0.3974000000000002,0.9502036745799443
-0.3972000000000002,0.9502036745799436
-0.3969999999999998,0.9502036745799436
-0.3967999999999998,0.9502036745799436
-0.3965999999999998,0.9502036745799436
-0.3963999999999999,0.9502036745799436
-0.3961999999999999,0.9502036745799436
-0.3959999999999999,0.9502036745799436
-0.3957999999999999,0.9505424582277513
-0.3956,0.9505424582277513
-0.3954,0.9505424582277513
-0.3952,0.9505424582277513
-0.395,0.9505424582277513
-0.3948,0.9505424582277513
-0.3946000000000001,0.9502036745799436
-0.3944000000000001,0.9502036745799436
-0.3942000000000001,0.9502036745799436
-0.3940000000000001,0.9502036745799436
-0.3938000000000001,0.9502036745799436
-0.3936000000000002,0.9502036745799436
-0.3934000000000002,0.9502036745799436
-0.3932000000000002,0.9502036745799436
-0.3929999999999998,0.9502036745799436
-0.3927999999999998,0.9502036745799436
-0.3925999999999998,0.9502036745799436
-0.3923999999999999,0.9502036745799436
